{
	"id": "4b52f4a4-4ed4-42ab-be98-217547d843fd",
	"name": "Production",
	"values": [
		{
			"key": "baseUrl",
			"value": "http://production.eba-pue3rmip.us-east-1.elasticbeanstalk.com",
			"type": "default",
			"enabled": true
		}
	],
	"_postman_variable_scope": "environment",
	"_postman_exported_at": "2023-11-17T13:02:47.909Z",
	"_postman_exported_using": "Postman/9.30.4"
}